{
  "version": 1,
  "disable_existing_loggers": false,
  "formatters": {
    "simple": {
      "format": "%(asctime)s - %(name)s - %(levelname)s - %(message)s"
    },
    "complex": {
      "format": "%(asctime)s %(levelname)-6s pid='%(process)s' logger='%(name)s' message='%(message)s' (%(filename)s:%(lineno)s)"
    }
  },
  "handlers": {
    "console": {
      "class": "logging.StreamHandler",
      "level": "DEBUG",
      "formatter": "simple",
      "stream": "ext://sys.stdout"
    },
    "splunk_file_handler": {
      "class": "logging.handlers.RotatingFileHandler",
      "level": "INFO",
      "formatter": "complex",
      "filename": "D:\\Program Files\\Splunk\\var\\log\\splunk\\ot_job_inspector.log",
      "maxBytes": 10485760,
      "backupCount": 20,
      "encoding": "utf8"
    }
  },
  "root": {
    "level": "INFO",
    "handlers": [
      "console",
      "splunk_file_handler"
    ]
  }
}